{
  "bodyClass": null,
  "hero": {
    "header": {
      "main": "Eponymous 4",
      "subhead": ""
    },
    "description": {
      "header": "Travis",
      "subhead": "",
      "body": "<p>After 14 years, it was time to say good bye to Travis County</p>",
      "url": "templates-single-album"
    }
  }
}