{
  "bodyClass": null,
  "hero": {
    "header": "Eponymous 4",
    "url": "templates-single-album",
    "description": {
      "header": "Travis",
      "subhead": "",
      "body": "<p>After 14 years, it was time to say good bye to Travis County</p>"
    }
  }
}